Lab-1 – POL 051 - Summer 2026
…
Using top_names, make a barplot that puts the baby’s name on the y-axis, and the proportion of babies with that name (the variable is called prop) on the x-axis. Map the sex variable to the fill aesthetic to create separate bars for male and female babies.

Question 3: Roughly speaking, where is the biggest drop off in name popularity among female names?

Task 2: Childcare costs

Run the code chunk below to generate childcare_four, a dataset of childcare costs for every county in four US states.

childcare_four = childcare |> 
  filter(state %in% c("Mississippi", "Virginia", "California", "Hawaii")) |> 
  select(state, county, infant_price)
childcare_four

# A tibble: 3,064 × 3
   state      county         infant_price
   <chr>      <chr>                 <dbl>
 1 California Alameda County         302.
 2 California Alameda County         313.
 3 California Alameda County         313.
 4 California Alameda County         314.
 5 California Alameda County         314.
 6 California Alameda County         312.
 7 California Alameda County         310.
 8 California Alameda County         344.
 9 California Alameda County         378.
10 California Alameda County         386.
# ℹ 3,054 more rows
…
Using directors_profit make a barplot that has the director on the y-axis and profit on the x-axis.

Make the plot below:

Question 9: Who is the least profitable director?

Task 4: Pokemon

First we’ll look at data on pokemon. Let’s load it below and look at it.

pokemon

# A tibble: 801 × 14
   name       type1 type2  height_m weight_kg capture_rate    hp attack defense
   <chr>      <chr> <chr>     <dbl>     <dbl>        <dbl> <dbl>  <dbl>   <dbl>
 1 Bulbasaur  grass poison      0.7       6.9           45    45     49      49
 2 Ivysaur    grass poison      1        13             45    60     62      63
 3 Venusaur   grass poison      2       100             45    80    100     123
 4 Charmander fire  <NA>        0.6       8.5           45    39     52      43
 5 Charmeleon fire  <NA>        1.1      19             45    58     64      58
 6 Charizard  fire  flying      1.7      90.5           45    78    104      78
 7 Squirtle   water <NA>        0.5       9             45    44     48      65
 8 Wartortle  water <NA>        1        22.5           45    59     63      80
 9 Blastoise  water <NA>        1.6      85.5           45    79    103     120
10 Caterpie   bug   <NA>        0.3       2.9          255    45     30      35
# ℹ 791 more rows
# ℹ 5 more variables: sp_attack <dbl>, sp_defense <dbl>, speed <dbl>,
#   generation <dbl>, is_legendary <dbl>
…
